<?xml version="1.0" encoding="UTF-8"?>
<svg width="40px" height="40px" viewBox="0 0 40 40" version="1.1" xmlns="http://www.w3.org/2000/svg" xmlns:xlink="http://www.w3.org/1999/xlink">
    <!-- Generator: Sketch 52.6 (67491) - http://www.bohemiancoding.com/sketch -->
    <title>Artboard</title>
    <desc>Created with Sketch.</desc>
    <g id="Artboard" stroke="none" stroke-width="1" fill="none" fill-rule="evenodd">
        <g id="up-arrow" fill="#C4C4C4">
            <path d="M27.5246995,23.9995179 C27.134626,24.0006164 26.7613561,23.8480525 26.4929723,23.577827 L20.000029,17.3795557 L13.5070857,23.577827 C12.9641795,24.1217735 12.0621499,24.1425957 11.4923436,23.6243283 C11.4757161,23.6092048 11.459474,23.5936998 11.4436315,23.577827 C10.8729896,23.0604007 10.8497918,22.1993399 11.3918166,21.6545917 C11.4086413,21.6376826 11.4259187,21.6211894 11.4436315,21.6051284 L18.9682729,14.4219809 C19.5111792,13.8780343 20.4132088,13.8572122 20.9830151,14.3754795 C20.9996426,14.390603 21.0158847,14.406108 21.0317271,14.4219808 L28.5563685,21.6051283 C29.1270104,22.1225545 29.1502082,22.9836153 28.6081834,23.5283635 C28.5913587,23.5452726 28.5740813,23.5617659 28.5563685,23.5778268 C28.2936307,23.8556897 27.916609,24.0097847 27.5246415,23.9995178 L27.5246995,23.9995179 Z M20,40 C8.97856119,40 -2.27373675e-13,31.0186223 -2.27373675e-13,20 C-2.27373675e-13,8.97856119 8.98137771,0 20,0 C31.0214388,0 40,8.97852207 40,20 C40,31.0214388 31.0214779,40 20,40 Z M19.9999804,3 C10.6145736,3.01090588 3.00935285,10.6167664 3.00000033,20.0013995 L3,20.0011123 C3.01074539,29.3846634 10.6153848,36.9889093 19.9997097,37 C29.3841511,36.989255 36.9890626,29.3850498 36.9999997,20.0014214 L37,20.001708 C36.9892538,10.6181569 29.3846152,3.013911 20.0002903,3.00282029 L19.9999804,3 Z" id="Combined-Shape"></path>
        </g>
    </g>
</svg>